{
	"$schema": "https://biomejs.dev/schemas/1.4.0/schema.json",
	"formatter": {
		"indentWidth": 4,
		"indentStyle": "space"
	},
	"javascript": {
		"formatter": {
			"semicolons": "always"
		}
	},
	"linter": {
		"rules": {
			"complexity": {
				"noForEach": "off"
			}
		}
	}
}
